dataset_number/I:physics_short/C:crossSection_pb/D:kFactor/D:genFiltEff/D:relUncertUP/D:relUncertDOWN/D
600465  PhPy8EG_PDF4LHC15_HHbbWW2l_cHHH01d0   3.1E-02  1.0   0.0162394    0.0  0.0
600467  PhPy8EG_PDF4LHC15_HHbbtt2l_cHHH01d0   3.1E-02  1.0   0.00905898   0.0  0.0
600469  PhPy8EG_PDF4LHC15_HHbbZZ2l_cHHH01d0   3.1E-02  1.0   0.00087235   0.0  0.0
538106  MGPy8EG_NNPDF23LO_X251tohh_WWbb_2lep  0.414    1.0   0.0162394    0.0   0.0
538107  MGPy8EG_NNPDF23LO_X260tohh_WWbb_2lep  0.581    1.0   0.0162394    0.0   0.0
538108  MGPy8EG_NNPDF23LO_X300tohh_WWbb_2lep  0.284    1.0   0.0162394    0.0   0.0
538109  MGPy8EG_NNPDF23LO_X400tohh_WWbb_2lep  0.058    1.0   0.0162394    0.0   0.0
538110  MGPy8EG_NNPDF23LO_X500tohh_WWbb_2lep  0.041    1.0   0.0162394    0.0   0.0
538111  MGPy8EG_NNPDF23LO_X600tohh_WWbb_2lep  0.013    1.0   0.0162394    0.0   0.0
538112  MGPy8EG_NNPDF23LO_X800tohh_WWbb_2lep  0.014    1.0   0.0162394    0.0   0.0
538113  MGPy8EG_NNPDF23LO_X1000tohh_WWbb_2lep 0.010    1.0   0.0162394    0.0   0.0
538114  MGPy8EG_NNPDF23LO_X251tohh_ttbb_2lep  0.414    1.0   0.00905898   0.0   0.0
538115  MGPy8EG_NNPDF23LO_X260tohh_ttbb_2lep  0.581    1.0   0.00905898   0.0   0.0
538116  MGPy8EG_NNPDF23LO_X300tohh_ttbb_2lep  0.284    1.0   0.00905898   0.0   0.0
538117  MGPy8EG_NNPDF23LO_X400tohh_ttbb_2lep  0.058    1.0   0.00905898   0.0   0.0
538118  MGPy8EG_NNPDF23LO_X500tohh_ttbb_2lep  0.041    1.0   0.00905898   0.0   0.0
538119  MGPy8EG_NNPDF23LO_X600tohh_ttbb_2lep  0.013    1.0   0.00905898   0.0   0.0
538120  MGPy8EG_NNPDF23LO_X800tohh_ttbb_2lep  0.014    1.0   0.00905898   0.0   0.0
538121  MGPy8EG_NNPDF23LO_X1000tohh_ttbb_2lep 0.010    1.0   0.00905898   0.0   0.0
538122  MGPy8EG_NNPDF23LO_X251tohh_ZZbb_2lep  0.414    1.0   0.00087235   0.0   0.0
538123  MGPy8EG_NNPDF23LO_X260tohh_ZZbb_2lep  0.581    1.0   0.00087235   0.0   0.0
538124  MGPy8EG_NNPDF23LO_X300tohh_ZZbb_2lep  0.284    1.0   0.00087235   0.0   0.0
538125  MGPy8EG_NNPDF23LO_X400tohh_ZZbb_2lep  0.058    1.0   0.00087235   0.0   0.0
538126  MGPy8EG_NNPDF23LO_X500tohh_ZZbb_2lep  0.041    1.0   0.00087235   0.0   0.0
538127  MGPy8EG_NNPDF23LO_X600tohh_ZZbb_2lep  0.013    1.0   0.00087235   0.0   0.0
538128  MGPy8EG_NNPDF23LO_X800tohh_ZZbb_2lep  0.014    1.0   0.00087235   0.0   0.0
538129  MGPy8EG_NNPDF23LO_X1000tohh_ZZbb_2lep 0.010    1.0   0.00087235   0.0   0.0
