mc20_13TeV.410470.PhPy8EG_A14_ttbar_hdamp258p75_nonallhad.deriv.DAOD_PHYS.e6337_s3681_r13144_p5980
mc20_13TeV.410470.PhPy8EG_A14_ttbar_hdamp258p75_nonallhad.deriv.DAOD_PHYS.e6337_s3681_r13145_p5980
mc20_13TeV.410470.PhPy8EG_A14_ttbar_hdamp258p75_nonallhad.deriv.DAOD_PHYS.e6337_s3681_r13167_p5980

mc20_13TeV.410471.PhPy8EG_A14_ttbar_hdamp258p75_allhad.deriv.DAOD_PHYS.e6337_s3681_r13144_p5980
mc20_13TeV.410471.PhPy8EG_A14_ttbar_hdamp258p75_allhad.deriv.DAOD_PHYS.e6337_s3681_r13145_p5980
mc20_13TeV.410471.PhPy8EG_A14_ttbar_hdamp258p75_allhad.deriv.DAOD_PHYS.e6337_s3681_r13167_p5980

mc20_13TeV.410472.PhPy8EG_A14_ttbar_hdamp258p75_dil.deriv.DAOD_PHYS.e6348_s3681_r13144_p5980
mc20_13TeV.410472.PhPy8EG_A14_ttbar_hdamp258p75_dil.deriv.DAOD_PHYS.e6348_s3681_r13145_p5980
mc20_13TeV.410472.PhPy8EG_A14_ttbar_hdamp258p75_dil.deriv.DAOD_PHYS.e6348_s3681_r13167_p5980

mc20_13TeV.410644.PowhegPythia8EvtGen_A14_singletop_schan_lept_top.deriv.DAOD_PHYS.e6527_s3681_r13144_p5980
mc20_13TeV.410644.PowhegPythia8EvtGen_A14_singletop_schan_lept_top.deriv.DAOD_PHYS.e6527_s3681_r13145_p5980
mc20_13TeV.410644.PowhegPythia8EvtGen_A14_singletop_schan_lept_top.deriv.DAOD_PHYS.e6527_s3681_r13167_p5980

mc20_13TeV.410645.PowhegPythia8EvtGen_A14_singletop_schan_lept_antitop.deriv.DAOD_PHYS.e6527_s3681_r13144_p5980
mc20_13TeV.410645.PowhegPythia8EvtGen_A14_singletop_schan_lept_antitop.deriv.DAOD_PHYS.e6527_s3681_r13145_p5980
mc20_13TeV.410645.PowhegPythia8EvtGen_A14_singletop_schan_lept_antitop.deriv.DAOD_PHYS.e6527_s3681_r13167_p5980

mc20_13TeV.410646.PowhegPythia8EvtGen_A14_Wt_DR_inclusive_top.deriv.DAOD_PHYS.e6552_s3681_r13144_p6026
mc20_13TeV.410646.PowhegPythia8EvtGen_A14_Wt_DR_inclusive_top.deriv.DAOD_PHYS.e6552_s3681_r13145_p6026
mc20_13TeV.410646.PowhegPythia8EvtGen_A14_Wt_DR_inclusive_top.deriv.DAOD_PHYS.e6552_s3681_r13167_p6026

mc20_13TeV.410647.PowhegPythia8EvtGen_A14_Wt_DR_inclusive_antitop.deriv.DAOD_PHYS.e6552_s3681_r13144_p6026
mc20_13TeV.410647.PowhegPythia8EvtGen_A14_Wt_DR_inclusive_antitop.deriv.DAOD_PHYS.e6552_s3681_r13145_p6026

mc20_13TeV.410654.PowhegPythia8EvtGen_A14_Wt_DS_inclusive_top.deriv.DAOD_PHYS.e6552_s3681_r13144_p6026
mc20_13TeV.410654.PowhegPythia8EvtGen_A14_Wt_DS_inclusive_top.deriv.DAOD_PHYS.e6552_s3681_r13145_p6026

mc20_13TeV.410655.PowhegPythia8EvtGen_A14_Wt_DS_inclusive_antitop.deriv.DAOD_PHYS.e6552_s3681_r13145_p6026

mc20_13TeV.410658.PhPy8EG_A14_tchan_BW50_lept_top.deriv.DAOD_PHYS.e6671_s3681_r13144_p6026
mc20_13TeV.410658.PhPy8EG_A14_tchan_BW50_lept_top.deriv.DAOD_PHYS.e6671_s3681_r13145_p6026
mc20_13TeV.410658.PhPy8EG_A14_tchan_BW50_lept_top.deriv.DAOD_PHYS.e6671_s3681_r13167_p6026

mc20_13TeV.410659.PhPy8EG_A14_tchan_BW50_lept_antitop.deriv.DAOD_PHYS.e6671_s3681_r13144_p6026
mc20_13TeV.410659.PhPy8EG_A14_tchan_BW50_lept_antitop.deriv.DAOD_PHYS.e6671_s3681_r13145_p6026
mc20_13TeV.410659.PhPy8EG_A14_tchan_BW50_lept_antitop.deriv.DAOD_PHYS.e6671_s3681_r13167_p6026

mc20_13TeV.601354.PhPy8EG_tW_dyn_DR_dil_top.deriv.DAOD_PHYS.e8547_e8455_s4231_r13144_r13146_p5980
mc20_13TeV.601354.PhPy8EG_tW_dyn_DR_dil_top.deriv.DAOD_PHYS.e8547_e8455_s4231_r13145_r13146_p5980
mc20_13TeV.601354.PhPy8EG_tW_dyn_DR_dil_top.deriv.DAOD_PHYS.e8547_e8455_s4231_r13167_r13146_p5980

mc20_13TeV.601353.PhPy8EG_tW_dyn_DR_dil_antitop.deriv.DAOD_PHYS.e8547_s4231_r13144_p5980
mc20_13TeV.601353.PhPy8EG_tW_dyn_DR_dil_antitop.deriv.DAOD_PHYS.e8547_s4231_r13145_p5980
mc20_13TeV.601353.PhPy8EG_tW_dyn_DR_dil_antitop.deriv.DAOD_PHYS.e8547_s4231_r13167_p5980

mc20_13TeV.601352.PhPy8EG_tW_dyn_DR_incl_antitop.deriv.DAOD_PHYS.e8547_s4231_r13144_p5980
mc20_13TeV.601352.PhPy8EG_tW_dyn_DR_incl_antitop.deriv.DAOD_PHYS.e8547_s4231_r13145_p5980
mc20_13TeV.601352.PhPy8EG_tW_dyn_DR_incl_antitop.deriv.DAOD_PHYS.e8547_s4231_r13167_p5980

mc20_13TeV:mc20_13TeV.601355.PhPy8EG_tW_dyn_DR_incl_top.deriv.DAOD_PHYS.e8547_s4231_r13144_p5980
mc20_13TeV:mc20_13TeV.601355.PhPy8EG_tW_dyn_DR_incl_top.deriv.DAOD_PHYS.e8547_s4231_r13145_p5980
mc20_13TeV:mc20_13TeV.601355.PhPy8EG_tW_dyn_DR_incl_top.deriv.DAOD_PHYS.e8547_s4231_r13167_p5980

mc20_13TeV.700000.Sh_228_ttW.deriv.DAOD_PHYS.e7793_s3681_r13144_p6026
mc20_13TeV.700000.Sh_228_ttW.deriv.DAOD_PHYS.e7793_s3681_r13145_p6026
